<?xml version="1.0" encoding="UTF-8" standalone="no"?>
<svg
   xmlns:dc="http://purl.org/dc/elements/1.1/"
   xmlns:cc="http://creativecommons.org/ns#"
   xmlns:rdf="http://www.w3.org/1999/02/22-rdf-syntax-ns#"
   xmlns:svg="http://www.w3.org/2000/svg"
   xmlns="http://www.w3.org/2000/svg"
   xmlns:sodipodi="http://sodipodi.sourceforge.net/DTD/sodipodi-0.dtd"
   xmlns:inkscape="http://www.inkscape.org/namespaces/inkscape"
   version="1.1"
   width="92"
   height="22.603071"
   id="svg2855"
   inkscape:version="1.0.1 (3bc2e813f5, 2020-09-07)"
   sodipodi:docname="selene_lightbackground.svg">
  <metadata
     id="metadata14">
    <rdf:RDF>
      <cc:Work
         rdf:about="">
        <dc:format>image/svg+xml</dc:format>
        <dc:type
           rdf:resource="http://purl.org/dc/dcmitype/StillImage" />
        <dc:title />
      </cc:Work>
    </rdf:RDF>
  </metadata>
  <sodipodi:namedview
     pagecolor="#ffffff"
     bordercolor="#666666"
     borderopacity="1"
     objecttolerance="10"
     gridtolerance="10"
     guidetolerance="10"
     inkscape:pageopacity="0"
     inkscape:pageshadow="2"
     inkscape:window-width="1920"
     inkscape:window-height="1016"
     id="namedview12"
     showgrid="false"
     fit-margin-top="0"
     fit-margin-left="0"
     fit-margin-right="0"
     fit-margin-bottom="0"
     inkscape:zoom="1.712379"
     inkscape:cx="136.9902"
     inkscape:cy="107.30107"
     inkscape:window-x="0"
     inkscape:window-y="0"
     inkscape:window-maximized="1"
     inkscape:current-layer="svg2855"
     inkscape:document-rotation="0" />
  <defs
     id="defs2857" />
  <text
     xml:space="preserve"
     style="font-style:normal;font-weight:normal;font-size:20.8094px;line-height:1.25;font-family:sans-serif;fill:#ff00ff;fill-opacity:1;stroke:none;stroke-width:0.520236;opacity:0.25;"
     x="-1.4091688"
     y="16.521828"
     id="text256"
     transform="scale(0.73967602,1.3519432)"><tspan
       sodipodi:role="line"
       id="tspan254"
       x="-1.4091688"
       y="16.521828"
       style="stroke-width:0.520236;fill:#ff00ff;">SeleneLinux</tspan></text>
</svg>
